%YAML 1.1
%TAG !u! tag:unity3d.com,2011:
--- !u!78 &1
TagManager:
  serializedVersion: 2
  tags:
  - Coin
  - floor
  - Enemy
  - bullet
  - LevelManager
  - AUDIO
  - DanerItems
  layers:
  - Default
  - TransparentFX
  - Ignore Raycast
  - Ground
  - Water
  - UI
  - Player
  - Background
  - Portal
  - Enemies
  - Coin
  - DangerItems
  - 
  - 
  - 
  - 
  - 
  - 
  - 
  - 
  - 
  - 
  - 
  - 
  - 
  - 
  - 
  - 
  - 
  - 
  - 
  - 
  m_SortingLayers:
  - name: Default
    uniqueID: 0
    locked: 0
  - name: Background
    uniqueID: 1803537327
    locked: 0
  - name: Ground
    uniqueID: 118555675
    locked: 0
  - name: DangerItems
    uniqueID: 3973708241
    locked: 0
  - name: Portal
    uniqueID: 162692263
    locked: 0
  - name: Enemies
    uniqueID: 523872789
    locked: 0
  - name: Coin
    uniqueID: 2593586525
    locked: 0
  - name: Player
    uniqueID: 315951787
    locked: 0
